…
seats <- sf::read_sf(local)
seats %>% 
  select(col, row, seat)
```

    ## Simple feature collection with 60 features and 3 fields
    ## geometry type:  POLYGON
    ## dimension:      XY
    ## bbox:           xmin: -7.604422 ymin: -18.49456 xmax: 7.604422 ymax: -4.769639
    ## epsg (SRID):    4326
    ## proj4string:    +proj=longlat +datum=WGS84 +no_defs
    ## # A tibble: 60 x 4
    ##      col   row  seat                                               geometry
    ##    <int> <int> <int>                                          <POLYGON [°]>
    ##  1     2     1     1 ((-4.65728 -5.950986, -5.921273 -5.612301, -5.695482 …
    ##  2     3     1     2 ((-2.904357 -6.281135, -4.193059 -6.053902, -4.04157 …
    ##  3     4     1     3 ((-1.129331 -6.457249, -2.432933 -6.343199, -2.356899…
    ##  4     5     1     4 ((1.129331 -6.457249, 1.053297 -5.588181, 2.356899 -5…
    ##  5     6     1     5 ((2.904357 -6.281135, 2.752869 -5.422, 4.04157 -5.194…
    ##  6     7     1     6 ((4.65728 -5.950986, 4.431489 -5.108325, 5.695482 -4.…
    ##  7     1     2     7 ((-6.374758 -7.214093, -7.604422 -6.766532, -7.306048…
    ##  8     2     2     8 ((-4.65728 -7.695762, -5.921273 -7.357076, -5.695482 …
    ##  9     3     2     9 ((-2.904357 -8.02591, -4.193059 -7.798677, -4.04157 -…
    ## 10     4     2    10 ((-1.129331 -8.202025, -2.432933 -8.087974, -2.356899…
    ## # … with 50 more rows
…
